<?xml version="1.0" encoding="UTF-8"?>
<gpx version="1.1" creator="GPS Visualizer Sandbox https://www.gpsvisualizer.com/draw/" xmlns="http://www.topografix.com/GPX/1/1" xmlns:xsi="http://www.w3.org/2001/XMLSchema-instance" xsi:schemaLocation="http://www.topografix.com/GPX/1/1 http://www.topografix.com/GPX/1/1/gpx.xsd">
	<trk>
		<name></name>
		<desc>Length: 4.561 km (2.834 mi)</desc>
		<trkseg>
			<trkpt lat="52.4276391" lon="13.6992002"></trkpt>
			<trkpt lat="52.4283718" lon="13.6990714"></trkpt>
			<trkpt lat="52.4294709" lon="13.6963677"></trkpt>
			<trkpt lat="52.4302951" lon="13.6976337"></trkpt>
			<trkpt lat="52.4304129" lon="13.7000799"></trkpt>
			<trkpt lat="52.4299157" lon="13.7032557"></trkpt>
			<trkpt lat="52.4295232" lon="13.7047362"></trkpt>
			<trkpt lat="52.4315249" lon="13.7057447"></trkpt>
			<trkpt lat="52.4311848" lon="13.7078261"></trkpt>
			<trkpt lat="52.4307007" lon="13.7092209"></trkpt>
			<trkpt lat="52.4299026" lon="13.7101007"></trkpt>
			<trkpt lat="52.428869" lon="13.7108302"></trkpt>
			<trkpt lat="52.4283718" lon="13.7113237"></trkpt>
			<trkpt lat="52.428712" lon="13.7118387"></trkpt>
			<trkpt lat="52.4299942" lon="13.7118816"></trkpt>
			<trkpt lat="52.431067" lon="13.7116027"></trkpt>
			<trkpt lat="52.4314726" lon="13.710444"></trkpt>
			<trkpt lat="52.4317735" lon="13.7086844"></trkpt>
			<trkpt lat="52.4319959" lon="13.707397"></trkpt>
			<trkpt lat="52.4322445" lon="13.7060237"></trkpt>
			<trkpt lat="52.4324931" lon="13.7045217"></trkpt>
			<trkpt lat="52.4316427" lon="13.7041354"></trkpt>
			<trkpt lat="52.4298241" lon="13.7034917"></trkpt>
			<trkpt lat="52.4289868" lon="13.7074399"></trkpt>
			<trkpt lat="52.429183" lon="13.7089419"></trkpt>
			<trkpt lat="52.4278223" lon="13.7103152"></trkpt>
			<trkpt lat="52.4258597" lon="13.7115598"></trkpt>
			<trkpt lat="52.4257288" lon="13.7099719"></trkpt>
			<trkpt lat="52.4258073" lon="13.7081051"></trkpt>
			<trkpt lat="52.4260952" lon="13.7056804"></trkpt>
			<trkpt lat="52.4263307" lon="13.7035561"></trkpt>
			<trkpt lat="52.4266709" lon="13.7017536"></trkpt>
			<trkpt lat="52.4271288" lon="13.7008095"></trkpt>
			<trkpt lat="52.4280055" lon="13.6994791"></trkpt>
			<trkpt lat="52.4277438" lon="13.699286"></trkpt>
		</trkseg>
	</trk>
</gpx>
