<?xml version="1.0" encoding="UTF-8"?>
<gpx version="1.1" creator="GPS Visualizer Sandbox https://www.gpsvisualizer.com/draw/" xmlns="http://www.topografix.com/GPX/1/1" xmlns:xsi="http://www.w3.org/2001/XMLSchema-instance" xsi:schemaLocation="http://www.topografix.com/GPX/1/1 http://www.topografix.com/GPX/1/1/gpx.xsd">
	<trk>
		<name></name>
		<desc>Length: 1.638 km (1.018 mi)</desc>
		<trkseg>
			<trkpt lat="52.4901171" lon="13.3708012"></trkpt>
			<trkpt lat="52.4900387" lon="13.3710158"></trkpt>
			<trkpt lat="52.4875235" lon="13.3710051"></trkpt>
			<trkpt lat="52.4862169" lon="13.3708334"></trkpt>
			<trkpt lat="52.4852042" lon="13.3703077"></trkpt>
			<trkpt lat="52.4835447" lon="13.3692992"></trkpt>
			<trkpt lat="52.4809638" lon="13.3677113"></trkpt>
			<trkpt lat="52.479964" lon="13.3670461"></trkpt>
			<trkpt lat="52.4795197" lon="13.3665955"></trkpt>
			<trkpt lat="52.4784611" lon="13.3659518"></trkpt>
			<trkpt lat="52.4774744" lon="13.3653295"></trkpt>
			<trkpt lat="52.4774287" lon="13.3648467"></trkpt>
			<trkpt lat="52.4782063" lon="13.3636129"></trkpt>
		</trkseg>
	</trk>
</gpx>
