<?xml version="1.0" encoding="UTF-8"?>
<gpx version="1.1" creator="GPS Visualizer Sandbox https://www.gpsvisualizer.com/draw/" xmlns="http://www.topografix.com/GPX/1/1" xmlns:xsi="http://www.w3.org/2001/XMLSchema-instance" xsi:schemaLocation="http://www.topografix.com/GPX/1/1 http://www.topografix.com/GPX/1/1/gpx.xsd">
	<trk>
		<name></name>
		<desc>Length: 8.505 km (5.285 mi)</desc>
		<trkseg>
			<trkpt lat="52.4800424" lon="13.4984958"></trkpt>
			<trkpt lat="52.4799706" lon="13.4982169"></trkpt>
			<trkpt lat="52.4782978" lon="13.4978628"></trkpt>
			<trkpt lat="52.4768994" lon="13.4972405"></trkpt>
			<trkpt lat="52.4755401" lon="13.4960818"></trkpt>
			<trkpt lat="52.4741808" lon="13.4964681"></trkpt>
			<trkpt lat="52.4724163" lon="13.497541"></trkpt>
			<trkpt lat="52.4711092" lon="13.4982705"></trkpt>
			<trkpt lat="52.4682519" lon="13.5013175"></trkpt>
			<trkpt lat="52.467436" lon="13.5017252"></trkpt>
			<trkpt lat="52.4659981" lon="13.5021544"></trkpt>
			<trkpt lat="52.4649392" lon="13.5029483"></trkpt>
			<trkpt lat="52.4638802" lon="13.5042143"></trkpt>
			<trkpt lat="52.4628867" lon="13.5060382"></trkpt>
			<trkpt lat="52.4622199" lon="13.5079265"></trkpt>
			<trkpt lat="52.4618931" lon="13.5091281"></trkpt>
			<trkpt lat="52.461174" lon="13.5113811"></trkpt>
			<trkpt lat="52.4600104" lon="13.5140634"></trkpt>
			<trkpt lat="52.4593828" lon="13.5152221"></trkpt>
			<trkpt lat="52.4588336" lon="13.5174966"></trkpt>
			<trkpt lat="52.4587421" lon="13.519299"></trkpt>
			<trkpt lat="52.4577353" lon="13.5215521"></trkpt>
			<trkpt lat="52.4564278" lon="13.5227323"></trkpt>
			<trkpt lat="52.455591" lon="13.5231614"></trkpt>
			<trkpt lat="52.4543618" lon="13.5253072"></trkpt>
			<trkpt lat="52.4539957" lon="13.5270452"></trkpt>
			<trkpt lat="52.4538388" lon="13.5300493"></trkpt>
			<trkpt lat="52.4530936" lon="13.5297704"></trkpt>
			<trkpt lat="52.4535903" lon="13.5242772"></trkpt>
			<trkpt lat="52.4544795" lon="13.5224104"></trkpt>
			<trkpt lat="52.4556302" lon="13.5214663"></trkpt>
			<trkpt lat="52.4569639" lon="13.5204148"></trkpt>
			<trkpt lat="52.4576307" lon="13.5194492"></trkpt>
			<trkpt lat="52.4582191" lon="13.517797"></trkpt>
			<trkpt lat="52.4585068" lon="13.5153294"></trkpt>
			<trkpt lat="52.4595005" lon="13.5129905"></trkpt>
			<trkpt lat="52.4607033" lon="13.5100293"></trkpt>
			<trkpt lat="52.4617885" lon="13.5069394"></trkpt>
			<trkpt lat="52.4627821" lon="13.5045576"></trkpt>
			<trkpt lat="52.464011" lon="13.5027552"></trkpt>
			<trkpt lat="52.4657628" lon="13.5013819"></trkpt>
			<trkpt lat="52.4682465" lon="13.4998155"></trkpt>
			<trkpt lat="52.4692138" lon="13.499043"></trkpt>
			<trkpt lat="52.4702857" lon="13.4974122"></trkpt>
			<trkpt lat="52.4722725" lon="13.4956527"></trkpt>
			<trkpt lat="52.4738279" lon="13.494966"></trkpt>
			<trkpt lat="52.4754617" lon="13.4950304"></trkpt>
			<trkpt lat="52.475527" lon="13.4959316"></trkpt>
			<trkpt lat="52.4769255" lon="13.4970474"></trkpt>
			<trkpt lat="52.4799444" lon="13.4980559"></trkpt>
		</trkseg>
	</trk>
</gpx>
